Execution Unit/simulation/qsim/Ass1.msim.vcd
$comment
	File created using the following command:
		vcd file Ass1.msim.vcd -direction
$end
$date
	Mon Nov 15 15:12:14 2021
$end
$version
	ModelSim Version 10.5b
$end
$timescale
	1ps
$end

$scope module ExecutionUnit_vlg_vec_tst $end
$var reg 1 ! clk $end
$var reg 10 " Input [9:0] $end
$var wire 1 # Aot [3] $end
$var wire 1 $ Aot [2] $end
$var wire 1 % Aot [1] $end
$var wire 1 & Aot [0] $end
$var wire 1 ' Bot [3] $end
$var wire 1 ( Bot [2] $end
$var wire 1 ) Bot [1] $end
$var wire 1 * Bot [0] $end
$var wire 1 + cot [3] $end
$var wire 1 , cot [2] $end
$var wire 1 - cot [1] $end
$var wire 1 . cot [0] $end
$var wire 1 / ot [3] $end
$var wire 1 0 ot [2] $end
$var wire 1 1 ot [1] $end
$var wire 1 2 ot [0] $end

$scope module i1 $end
$var wire 1 3 gnd $end
$var wire 1 4 vcc $end
$var wire 1 5 unknown $end
$var tri1 1 6 devclrn $end
$var tri1 1 7 devpor $end
$var tri1 1 8 devoe $end
$var wire 1 9 ~QUARTUS_CREATED_GND~I_combout $end
$var wire 1 : clk~input_o $end
$var wire 1 ; clk~inputCLKENA0_outclk $end
$var wire 1 < Input[4]~input_o $end
$var wire 1 = Input[5]~input_o $end
$var wire 1 > Input[9]~input_o $end
$var wire 1 ? Input[0]~input_o $end
$var wire 1 @ Input[1]~input_o $end
$var wire 1 A inst|inst4|inst2|inst2~combout $end
$var wire 1 B inst|inst2|inst333~q $end
$var wire 1 C inst|inst4|inst2|inst1~combout $end
$var wire 1 D inst|inst1|inst333~q $end
$var wire 1 E inst|inst4|inst|inst1|inst2|$00000|auto_generated|l1_w3_n0_mux_dataout~0_combout $end
$var wire 1 F Input[3]~input_o $end
$var wire 1 G Input[2]~input_o $end
$var wire 1 H inst|inst4|inst|inst|inst2|$00000|auto_generated|l1_w3_n0_mux_dataout~0_combout $end
$var wire 1 I Input[6]~input_o $end
$var wire 1 J inst|inst2|inst~q $end
$var wire 1 K inst|inst1|inst~q $end
$var wire 1 L inst|inst4|inst|inst|inst2|$00000|auto_generated|l1_w0_n0_mux_dataout~0_combout $end
$var wire 1 M inst|inst3|inst|inst2|$00000|auto_generated|l1_w0_n0_mux_dataout~0_combout $end
$var wire 1 N inst|inst4|inst2|inst~combout $end
$var wire 1 O inst|inst|inst~q $end
$var wire 1 P inst|inst4|inst|inst1|inst2|$00000|auto_generated|l1_w0_n0_mux_dataout~0_combout $end
$var wire 1 Q Input[7]~input_o $end
$var wire 1 R inst|inst|inst1~q $end
$var wire 1 S inst|inst2|inst1~q $end
$var wire 1 T inst|inst4|inst|inst|inst2|$00000|auto_generated|l1_w1_n0_mux_dataout~0_combout $end
$var wire 1 U inst|inst3|inst|inst2|$00000|auto_generated|l1_w1_n0_mux_dataout~0_combout $end
$var wire 1 V inst|inst1|inst1~q $end
$var wire 1 W inst|inst4|inst|inst1|inst2|$00000|auto_generated|l1_w1_n0_mux_dataout~0_combout $end
$var wire 1 X Input[8]~input_o $end
$var wire 1 Y inst|inst2|inst2~q $end
$var wire 1 Z inst|inst1|inst2~q $end
$var wire 1 [ inst|inst4|inst|inst|inst2|$00000|auto_generated|l1_w2_n0_mux_dataout~0_combout $end
$var wire 1 \ inst|inst3|inst4|inst6|inst4~combout $end
$var wire 1 ] inst|inst3|inst|inst2|$00000|auto_generated|l1_w2_n0_mux_dataout~0_combout $end
$var wire 1 ^ inst|inst|inst2~q $end
$var wire 1 _ inst|inst4|inst|inst1|inst2|$00000|auto_generated|l1_w2_n0_mux_dataout~0_combout $end
$var wire 1 ` inst|inst3|inst|inst2|$00000|auto_generated|l1_w3_n0_mux_dataout~0_combout $end
$var wire 1 a inst|inst3|inst|inst2|$00000|auto_generated|l1_w3_n0_mux_dataout~1_combout $end
$var wire 1 b inst|inst|inst333~q $end
$upscope $end
$upscope $end
$enddefinitions $end
#0
$dumpvars
0!
b1111001100 "
0&
0%
0$
0#
0*
0)
0(
0'
0.
0-
0,
0+
12
11
10
1/
03
14
x5
16
17
18
09
0:
0;
0<
0=
1>
0?
0@
0A
0B
0C
0D
0E
1F
1G
1H
1I
0J
0K
1L
1M
1N
0O
0P
1Q
0R
0S
1T
1U
0V
0W
1X
0Y
0Z
1[
0\
1]
0^
0_
0`
1a
0b
$end
#50000
1!
1:
1;
1b
1^
1R
1O
1&
1%
1$
1#
1P
1W
1_
1E
1`
1\
#100000
b111001100 "
b11001100 "
b10001100 "
b10001101 "
0!
1?
0I
0X
0>
0:
0;
0H
0E
0_
0[
0P
0L
0W
0N
1C
0`
0\
0M
0]
0a
0/
00
02
#150000
1!
1:
1;
1V
1)
1W
1\
#200000
b10001111 "
b1010001111 "
b1010001110 "
0!
0?
1@
1>
0:
0;
1H
0W
0C
1A
0\
1a
1/
#250000
1!
1:
1;
1S
1B
1+
1-
1E
1W
1\
#300000
b1000001110 "
b1000101110 "
b1000111110 "
b1000110110 "
b110110 "
0!
0F
1<
1=
0Q
0>
0:
0;
0H
0a
0/
#350000
1!
1:
1;
0B
0+
0E
#400000
b110010 "
b110000 "
b111000 "
0!
0@
0G
1F
0:
0;
1_
1P
1N
1E
0A
1`
#450000
1!
1:
1;
0b
0^
0O
0&
0$
0#
0P
0_
0E
0`
#500000
b100111000 "
b100111001 "
b110111001 "
b110111101 "
0!
1?
1G
1Q
1X
0:
0;
1[
0N
1C
1`
#550000
1!
1:
1;
#600000
b110101101 "
b110101111 "
b110101110 "
0!
0?
1@
0<
0:
0;
0C
1A
1a
0U
01
1/
#650000
1!
1:
1;
0S
1B
1+
0-
1E
0W
0`
0\
1U
0a
0/
11
1]
1a
1/
10
#700000
b10101110 "
b101110 "
b101010 "
b101000 "
b101001 "
0!
1?
0@
0G
0Q
0X
0:
0;
0[
1W
0T
1H
0E
1C
0A
0]
00
#750000
1!
1:
1;
1D
1'
1E
0a
0/
#800000
b1001 "
b1 "
b101 "
b111 "
b110 "
0!
0?
1@
1G
0F
0=
0:
0;
1T
0W
0C
1A
1a
0U
01
1/
1U
11
#850000
1!
1:
1;
1S
1-
1W
1\
#900000
b10 "
b0 "
0!
0@
0G
0:
0;
0H
1N
0E
0A
0a
0/
#950000
1!
1:
1;
